%YAML 1.1
%TAG !u! tag:unity3d.com,2011:
--- !u!114 &11400000
MonoBehaviour:
  m_ObjectHideFlags: 0
  m_CorrespondingSourceObject: {fileID: 0}
  m_PrefabInstance: {fileID: 0}
  m_PrefabAsset: {fileID: 0}
  m_GameObject: {fileID: 0}
  m_Enabled: 1
  m_EditorHideFlags: 0
  m_Script: {fileID: 11500000, guid: fed7fb4ed3b748f8a9f245b9b9bc97fa, type: 3}
  m_Name: LubanClient
  m_EditorClassIdentifier: 
  LuBanConfigPath: F:\GitHubWorks\GameFrameX\Unity/../Config/Luban.conf
  preview_command: 'dotnet.exe '
